[gd_scene load_steps=4 format=2]

[ext_resource path="res://Scripts/Enemy.gd" type="Script" id=1]
[ext_resource path="res://Sprites/enemyShip.png" type="Texture" id=2]

[sub_resource type="RectangleShape2D" id=1]

custom_solver_bias = 0.0
extents = Vector2( 22.7438, 13.4239 )

[node name="Enemy" type="Area2D" groups=[
"enemy",
]]

position = Vector2( 266.717, 79.6629 )
input_pickable = true
gravity_vec = Vector2( 0, 1 )
gravity = 98.0
linear_damp = 0.1
angular_damp = 1.0
audio_bus_override = false
audio_bus_name = "Master"
script = ExtResource( 1 )
speed = 100
forward_step = 30

[node name="Sprite" type="Sprite" parent="." index="0"]

scale = Vector2( 0.5, 0.5 )
texture = ExtResource( 2 )
_sections_unfolded = [ "Transform" ]

[node name="CollisionShape2D" type="CollisionShape2D" parent="." index="1"]

position = Vector2( 1.05173, 0 )
scale = Vector2( 1.10517, 1 )
shape = SubResource( 1 )


